<?xml version="1.0" encoding="UTF-8"?>
<svg width="61px" height="61px" viewBox="0 0 61 61" version="1.1" xmlns="http://www.w3.org/2000/svg" xmlns:xlink="http://www.w3.org/1999/xlink">
    <!-- Generator: Sketch 47.1 (45422) - http://www.bohemiancoding.com/sketch -->
    <title>Page 1</title>
    <desc>Created with Sketch.</desc>
    <defs></defs>
    <g id="Sobre---Sistran" stroke="none" stroke-width="1" fill="none" fill-rule="evenodd">
        <g id="2-Sobre" transform="translate(-1013.000000, -3076.000000)" fill="#002E62">
            <g id="Group-10" transform="translate(286.000000, 2920.000000)">
                <g id="Page-1" transform="translate(727.000000, 156.000000)">
                    <path d="M1.0299929,31 C0.741920495,31 0.49487058,30.8749437 0.28899565,30.6666708 C-0.122754209,30.2498163 -0.0815792227,29.5828492 0.330170636,29.2078346 L29.7669306,0.281376765 C30.1786804,-0.0937922551 30.7961527,-0.0937922551 31.2079026,0.281376765 L39.6890347,8.61753976 L39.6890347,3.57406388 C39.6890347,2.99062202 40.141807,2.53208211 40.7182568,2.53208211 L48.787639,2.53208211 C49.3640888,2.53208211 49.8168612,2.99062202 49.8168612,3.57406388 L49.8168612,18.537441 L60.6858375,29.2078346 C61.0975873,29.6245346 61.0975873,30.2498163 60.7270125,30.6666708 C60.3152626,31.0833709 59.6977903,31.0833709 59.2860405,30.7083563 L48.1288393,19.7463189 C47.9231168,19.5378917 47.7995919,19.287779 47.7995919,18.9959809 L47.7995919,4.61620005 L41.7886539,4.61620005 L41.7886539,11.0766723 C41.7886539,11.4935268 41.541604,11.8685414 41.1711817,12.0352832 C40.8006068,12.202025 40.3476819,12.1186541 40.059457,11.826856 L30.5079278,2.49039666 L1.72996766,30.7083563 C1.56526771,30.9166291 1.27704281,31 1.0299929,31 Z" id="Fill-1"></path>
                    <path d="M50.9786798,61 L37.8236397,61 C37.2516156,61 36.8021681,60.5456316 36.8021681,59.9674974 L36.8021681,38.7797001 L23.1978319,38.7797001 L23.1978319,59.9674974 C23.1978319,60.5456316 22.7483844,61 22.1763603,61 L9.02132021,61 C8.44944748,61 8,60.5456316 8,59.9674974 L8,29.0326556 C8,28.4543684 8.44944748,28 9.02132021,28 C9.59334427,28 10.0426404,28.4543684 10.0426404,29.0326556 L10.0426404,58.9349949 L21.1550401,58.9349949 L21.1550401,37.7471976 C21.1550401,37.1690634 21.6044876,36.714695 22.1763603,36.714695 L37.8236397,36.714695 C38.3955124,36.714695 38.8449599,37.1690634 38.8449599,37.7471976 L38.8449599,58.9349949 L49.9573596,58.9349949 L49.9573596,29.858627 C49.9573596,29.2803399 50.4066557,28.8261244 50.9786798,28.8261244 C51.5505525,28.8261244 52,29.2803399 52,29.858627 L52,59.9674974 C52,60.5456316 51.5505525,61 50.9786798,61 Z" id="Fill-2"></path>
                </g>
            </g>
        </g>
    </g>
</svg>