<?xml version="1.0" encoding="UTF-8"?>
<svg width="60px" height="60px" viewBox="0 0 60 60" version="1.1" xmlns="http://www.w3.org/2000/svg" xmlns:xlink="http://www.w3.org/1999/xlink">
    <!-- Generator: Sketch 47.1 (45422) - http://www.bohemiancoding.com/sketch -->
    <title>Page 1</title>
    <desc>Created with Sketch.</desc>
    <defs></defs>
    <g id="Sobre---Sistran" stroke="none" stroke-width="1" fill="none" fill-rule="evenodd">
        <g id="2-Sobre" transform="translate(-619.000000, -7202.000000)" fill="#002E62">
            <g id="Group-14" transform="translate(134.000000, 6796.000000)">
                <g id="Group-6" transform="translate(0.000000, 406.000000)">
                    <g id="Group-4" transform="translate(436.000000, 0.000000)">
                        <g id="Page-1" transform="translate(49.000000, 0.000000)">
                            <path d="M30,60 C13.4667,60 0,46.5333 0,30 C0,13.4667 13.4667,0 30,0 C46.5333,0 60,13.4667 60,30 C60,46.5333 46.5333,60 30,60 Z M30,1.3333 C14.1333,1.3333 1.3333,14.1333 1.3333,30 C1.3333,45.8667 14.1333,58.6667 30,58.6667 C45.8667,58.6667 58.6667,45.8667 58.6667,30 C58.6667,14.1333 45.8667,1.3333 30,1.3333 Z" id="Fill-1"></path>
                            <path d="M42,42.4 L33.4667,42.4 C33.0667,42.4 32.8,42.1333 32.8,41.7333 L32.8,32.6667 L27.2,32.6667 L27.2,41.7333 C27.2,42.1333 26.9333,42.4 26.5333,42.4 L18,42.4 C17.6,42.4 17.3333,42.1333 17.3333,41.7333 L17.3333,27.8667 C17.3333,27.4667 17.6,27.2 18,27.2 C18.4,27.2 18.6667,27.4667 18.6667,27.8667 L18.6667,41.0667 L25.8667,41.0667 L25.8667,32 C25.8667,31.6 26.1333,31.3333 26.5333,31.3333 L33.4667,31.3333 C33.8667,31.3333 34.1333,31.6 34.1333,32 L34.1333,41.0667 L41.3333,41.0667 L41.3333,27.8667 C41.3333,27.4667 41.6,27.2 42,27.2 C42.4,27.2 42.6667,27.4667 42.6667,27.8667 L42.6667,41.7333 C42.6667,42.1333 42.4,42.4 42,42.4 Z" id="Fill-2"></path>
                            <path d="M46,30.4 C45.8667,30.4 45.7333,30.4 45.6,30.2667 L30,19.0667 L14.4,30.2667 C14.1333,30.5333 13.7333,30.4 13.4667,30.1333 C13.2,29.8667 13.3333,29.4667 13.6,29.2 L29.6,17.7333 C29.8667,17.6 30.1333,17.6 30.4,17.7333 L46.4,29.2 C46.6667,29.4667 46.8,29.8667 46.5333,30.1333 C46.4,30.4 46.2667,30.4 46,30.4 Z" id="Fill-3"></path>
                        </g>
                    </g>
                </g>
            </g>
        </g>
    </g>
</svg>