<?xml version="1.0" encoding="UTF-8"?>
<svg width="55px" height="54px" viewBox="0 0 55 54" version="1.1" xmlns="http://www.w3.org/2000/svg" xmlns:xlink="http://www.w3.org/1999/xlink">
    <!-- Generator: Sketch 47.1 (45422) - http://www.bohemiancoding.com/sketch -->
    <title>star</title>
    <desc>Created with Sketch.</desc>
    <defs></defs>
    <g id="Sobre---Sistran" stroke="none" stroke-width="1" fill="none" fill-rule="evenodd">
        <g id="2-Sobre" transform="translate(-864.000000, -7222.000000)" fill="#002E62">
            <g id="Group-14" transform="translate(134.000000, 6796.000000)">
                <g id="Group-11" transform="translate(730.000000, 422.800000)">
                    <path d="M11.0829839,56.4177379 C10.9019598,56.4177379 10.7209356,56.3453283 10.5400067,56.2367138 C10.2503681,56.0195801 10.1055487,55.6937366 10.1779584,55.3678931 L13.2549881,37.5212924 L0.295372915,24.8875208 C0.0419390854,24.6340869 -0.0666754128,24.2720386 0.0419390854,23.9462904 C0.150553584,23.6204469 0.440192246,23.3671083 0.765940464,23.3309035 L14.4857618,21.3760331 C14.9925342,21.3036234 15.4269922,21.6656718 15.4994019,22.1362393 C15.5718115,22.643107 15.2097632,23.0774697 14.7391957,23.1498793 L2.86553494,24.8875208 L14.884015,36.5800621 C15.1011487,36.797291 15.2097632,37.0869297 15.1373535,37.3764731 L12.2775529,53.8836855 L27.0834239,46.0644896 C27.3367625,45.9196703 27.662606,45.9196703 27.9160398,46.0644896 L42.7218156,53.8836855 L39.8620149,37.3764731 C39.8258101,37.0869297 39.8982198,36.797291 40.1154488,36.5800621 L52.1338335,24.9236303 L35.5542115,22.5344925 C35.2645728,22.4982876 35.0112343,22.3172635 34.8664149,22.0276248 L27.5177867,6.96841518 L22.0516191,18.0456649 C21.8343901,18.4800276 21.2914129,18.6972566 20.8569549,18.4438227 C20.4225922,18.226689 20.2053632,17.6836165 20.458797,17.2492538 L26.7213756,4.50686766 C26.8661949,4.18102416 27.1920384,4 27.5177867,4 C27.8436301,4 28.1693784,4.18102416 28.3141977,4.50686766 L36.3144177,20.7606462 L54.233428,23.3309035 C54.5592715,23.3671083 54.8488149,23.6204469 54.9574294,23.9462904 C55.0660439,24.2720386 54.9574294,24.6340869 54.7402957,24.8875208 L41.7444757,37.5212924 L44.8214101,55.3678931 C44.8938197,55.6937366 44.7490004,56.0556896 44.459457,56.2367138 C44.1698184,56.4539428 43.8078653,56.4539428 43.5182267,56.3091234 L27.5177867,47.8745407 L11.4811418,56.3453283 C11.3725273,56.3815331 11.2278033,56.4177379 11.0829839,56.4177379 Z" id="star"></path>
                </g>
            </g>
        </g>
    </g>
</svg>