<?xml version="1.0" encoding="UTF-8"?>
<svg width="60px" height="60px" viewBox="0 0 60 60" version="1.1" xmlns="http://www.w3.org/2000/svg" xmlns:xlink="http://www.w3.org/1999/xlink">
    <!-- Generator: Sketch 47.1 (45422) - http://www.bohemiancoding.com/sketch -->
    <title>Page 1</title>
    <desc>Created with Sketch.</desc>
    <defs></defs>
    <g id="Sobre---Sistran" stroke="none" stroke-width="1" fill="none" fill-rule="evenodd">
        <g id="2-Sobre" transform="translate(-472.000000, -7202.000000)" fill="#002E62">
            <g id="Group-14" transform="translate(134.000000, 6796.000000)">
                <g id="Group-6" transform="translate(0.000000, 406.000000)">
                    <g id="Group-3" transform="translate(290.000000, 0.000000)">
                        <g id="Page-1" transform="translate(48.000000, 0.000000)">
                            <path d="M30,60 C13.4667,60 0,46.5333 0,30 C0,13.4667 13.4667,0 30,0 C46.5333,0 60,13.4667 60,30 C60,46.5333 46.5333,60 30,60 Z M30,1.3333 C14.1333,1.3333 1.3333,14.1333 1.3333,30 C1.3333,45.8667 14.1333,58.6667 30,58.6667 C45.8667,58.6667 58.6667,45.8667 58.6667,30 C58.6667,14.1333 45.8667,1.3333 30,1.3333 Z" id="Fill-1"></path>
                            <path d="M39.4667,34.4 C39.3333,34.4 39.3333,34.4 39.2,34.4 C34.8,32.6667 30,32.1333 25.3333,32.8 C24.9333,32.8 24.6667,32.5333 24.5333,32.2667 C24.5333,31.8667 24.8,31.6 25.0667,31.4667 C30,30.8 34.9333,31.4667 39.6,33.2 C40,33.3333 40.1333,33.7333 40,34 C40,34.1333 39.7333,34.4 39.4667,34.4 Z" id="Fill-2"></path>
                            <path d="M15.6,35.7333 C15.3333,35.7333 15.0667,35.6 15.0667,35.3333 C14.9333,35.0667 15.0667,34.6667 15.3333,34.4 C16.4,33.8667 17.4667,33.3333 18.6667,32.9333 C19.0667,32.8 19.3333,32.9333 19.4667,33.3333 C19.6,33.7333 19.4667,34 19.0667,34.1333 C18,34.5333 16.9333,35.0667 15.8667,35.6 C15.7333,35.7333 15.6,35.7333 15.6,35.7333 Z" id="Fill-3"></path>
                            <path d="M33.2,43.7333 C32.8,43.7333 32.5333,43.4667 32.5333,43.0667 C32.5333,33.7333 28,24.9333 20.2667,19.6 C20,19.3333 19.8667,18.9333 20.1333,18.6667 C20.4,18.4 20.8,18.2667 21.0667,18.5333 C29.2,24.1333 34,33.2 34,43.0667 C33.8667,43.4667 33.6,43.7333 33.2,43.7333 Z" id="Fill-4"></path>
                            <path d="M31.6,23.3333 C31.4667,23.3333 31.3333,23.3333 31.2,23.2 C28.4,21.3333 26.1333,19.0667 24.1333,16.4 C23.8667,16.1333 24,15.7333 24.2667,15.4667 C24.5333,15.2 24.9333,15.3333 25.2,15.6 C27.0667,18.1333 29.3333,20.2667 32,22 C32.2667,22.2667 32.4,22.6667 32.1333,22.9333 C32,23.3333 31.7333,23.3333 31.6,23.3333 Z" id="Fill-5"></path>
                            <path d="M43.4667,28 C43.3333,28 43.3333,28 43.4667,28 C41.2,27.6 38.9333,27.0667 36.9333,26.2667 C36.5333,26.1333 36.4,25.7333 36.5333,25.4667 C36.6667,25.0667 37.0667,24.9333 37.3333,25.0667 C39.3333,25.8667 41.3333,26.4 43.4667,26.6667 C43.8667,26.6667 44.1333,27.0667 44,27.4667 C44,27.7333 43.7333,28 43.4667,28 Z" id="Fill-6"></path>
                            <path d="M34.2667,28 C32.1333,28 30.5333,26.2667 30.5333,24.2667 C30.5333,22.2667 32.2667,20.5333 34.2667,20.5333 C36.2667,20.5333 38,22.2667 38,24.2667 C38,26.2667 36.4,28 34.2667,28 Z M34.2667,21.7333 C32.9333,21.7333 31.8667,22.8 31.8667,24.1333 C31.8667,25.4667 32.9333,26.5333 34.2667,26.5333 C35.6,26.5333 36.6667,25.4667 36.6667,24.1333 C36.8,22.8 35.6,21.7333 34.2667,21.7333 Z" id="Fill-7"></path>
                            <path d="M42.2667,38.9333 C40.1333,38.9333 38.5333,37.2 38.5333,35.2 C38.5333,33.2 40.2667,31.4667 42.2667,31.4667 C44.2667,31.4667 46,33.2 46,35.2 C46,37.2 44.4,38.9333 42.2667,38.9333 Z M42.2667,32.8 C40.9333,32.8 39.8667,33.8667 39.8667,35.2 C39.8667,36.5333 40.9333,37.6 42.2667,37.6 C43.6,37.6 44.6667,36.5333 44.6667,35.2 C44.8,33.8667 43.6,32.8 42.2667,32.8 Z" id="Fill-8"></path>
                            <path d="M29.0667,45.2 C20.6667,45.2 13.8667,38.4 13.8667,30 C13.8667,21.6 20.6667,14.8 29.0667,14.8 C37.4667,14.8 44.2667,21.6 44.2667,30 C44.2667,30.8 44.1333,31.4667 44,32.4 L42.6667,32.1333 C42.8,31.3333 42.8,30.6667 42.8,30 C42.8,22.4 36.5333,16.1333 28.9333,16.1333 C21.3333,16.1333 15.0667,22.4 15.0667,30 C15.0667,37.6 21.3333,43.8667 28.9333,43.8667 C33.6,43.8667 37.8667,41.6 40.4,37.7333 L41.4667,38.5333 C38.8,42.6667 34.1333,45.2 29.0667,45.2 Z" id="Fill-9"></path>
                            <path d="M22.1333,36.8 C20,36.8 18.4,35.0667 18.4,33.0667 C18.4,31.0667 20.1333,29.3333 22.1333,29.3333 C24.1333,29.3333 25.8667,31.0667 25.8667,33.0667 C25.8667,35.0667 24.2667,36.8 22.1333,36.8 Z M22.1333,30.5333 C20.8,30.5333 19.7333,31.6 19.7333,32.9333 C19.7333,34.2667 20.8,35.3333 22.1333,35.3333 C23.4667,35.3333 24.5333,34.2667 24.5333,32.9333 C24.5333,31.7333 23.4667,30.5333 22.1333,30.5333 Z" id="Fill-10"></path>
                        </g>
                    </g>
                </g>
            </g>
        </g>
    </g>
</svg>